<?xml version="1.0" encoding="UTF-8"?>
<svg xmlns="http://www.w3.org/2000/svg" width="24" height="24">
  <path fill="#FCBC41" stroke="#FCBC41" d="M 12,2.5 14.4,9.5 21.5,9.5 15.8,13.75 18.5,21.5 12,16.625 5.5,21.5 8.2,13.75 2.5,9.5 9.6,9.5 z"/>
</svg>
